﻿%module Input
%{
    #include "BWAPI/Input.h"
%}
/*
%rename("%(regex:/.*::.*::(.*)/MouseButton_\\1/)s",
	regextarget=1, fullname=1) "BWAPI::MouseButton::.*";

%rename("%(regex:/.*::.*::(.*)/Key_\\1/)s",
	regextarget=1, fullname=1) "BWAPI::Key::.*";*/

%include "BWAPI/Input.h"